﻿[
  {
    "outputFile": "Content/Home.css",
    "inputFile": "Content/Home.less"
  },
  {
    "outputFile": "Content/Common.css",
    "inputFile": "Content/Common.less"
  },
  {
    "outputFile": "Content/Film.css",
    "inputFile": "Content/Film.less"
  }
]